<?xml version="1.0" encoding="UTF-8"?>
<svg width="50px" height="16px" viewBox="0 0 50 16" version="1.1" xmlns="http://www.w3.org/2000/svg" xmlns:xlink="http://www.w3.org/1999/xlink">
    <!-- Generator: Sketch 50.2 (55047) - http://www.bohemiancoding.com/sketch -->
    <title>coo</title>
    <desc>Created with Sketch.</desc>
    <defs></defs>
    <g id="Page-1" stroke="none" stroke-width="1" fill="#000000" fill-rule="evenodd">
        <g id="color" transform="translate(-25.000000, -374.000000)" fill="#000000">
            <g id="coo" transform="translate(25.000000, 374.000000)">
                <path d="M15.1967458,15.8142872 L0,15.8142872 L0,0 L15.1967458,0 L15.1967458,5.48696845 L12.1385972,5.48696845 L12.1385972,3.1858183 L3.05814858,3.1858183 L3.05814858,12.6267806 L12.1385972,12.6267806 L12.1385972,10.5316028 L15.1967458,10.5316028 L15.1967458,15.8142872 Z M50,16 L34.8210813,16 L34.8210813,0.168829798 L41.2501621,0.168829798 L41.2501621,3.3546481 L37.8792299,3.3546481 L37.8792299,12.8141817 L46.9418514,12.8141817 L46.9418514,3.3546481 L43.3732011,3.3546481 L43.3732011,0.168829798 L50,0.168829798 L50,16 Z M32.5943213,16 L17.4137819,16 L17.4137819,0.168829798 L23.8428627,0.168829798 L23.8428627,3.3546481 L20.4735511,3.3546481 L20.4735511,12.8141817 L29.5361727,12.8141817 L29.5361727,3.3546481 L25.9675224,3.3546481 L25.9675224,0.168829798 L32.5943213,0.168829798 L32.5943213,16 Z" id="Combined-Shape"></path>
            </g>
        </g>
    </g>
</svg>