<?xml version="1.0" encoding="UTF-8"?>
<svg width="42px" height="21px" viewBox="0 0 42 21" version="1.1" xmlns="http://www.w3.org/2000/svg" xmlns:xlink="http://www.w3.org/1999/xlink">
    <!-- Generator: Sketch 50.2 (55047) - http://www.bohemiancoding.com/sketch -->
    <title>life</title>
    <desc>Created with Sketch.</desc>
    <defs></defs>
    <g id="Page-1" stroke="none" stroke-width="1" fill="#000000" fill-rule="evenodd">
        <g id="color" transform="translate(-29.000000, -251.000000)" fill="#000000">
            <g id="life" transform="translate(29.000000, 251.000000)">
                <path d="M0.0903897324,20.5542453 L0.0903897324,20.4663725 L0,20.4663725 L0,4.30896226 L2.24330881,4.30896226 L2.24330881,18.375 L10.3668806,18.375 L10.3668806,20.5542453 L0.0903897324,20.5542453 Z M13.5913288,20.5542453 L13.5913288,9.04131163 L12.1861794,9.04131163 L12.1861794,7.49794583 L15.8346377,7.49794583 L15.8346377,20.5542453 L13.5913288,20.5542453 Z M20.6663797,20.5542453 L20.6663797,9.04131163 L18.4937392,9.04131163 L18.4937392,7.49794583 L20.6663797,7.49794583 L20.6663797,5.08224285 C20.6663797,3.1346622 21.964705,1.27016129 23.8941149,0.439363968 C24.57779,0.148584906 25.2959775,0 26.0305995,0 C27.4768352,0 28.9559399,0.575167377 30.3150728,1.66319233 L28.7998122,3.27525867 C27.8794804,2.5626902 26.9229926,2.18723372 26.028956,2.18723372 C25.6016591,2.18723372 25.1891532,2.27031345 24.8012991,2.43487523 C23.7051182,2.90938831 22.9096885,4.01978089 22.9096885,5.08224285 L22.9096885,7.49794583 L25.9007669,7.49794583 L25.9007669,9.04131163 L22.9096885,9.04131163 L22.9096885,20.5542453 L20.6663797,20.5542453 Z M13.6455627,4.89211808 L13.6455627,2.75601035 L15.8346377,2.75601035 L15.8346377,4.89211808 L13.6455627,4.89211808 Z M34.5321647,21 C30.4169667,21 27.0659728,17.7439136 27.0659728,13.7417072 C27.0659728,9.7410986 30.4169667,6.48341449 34.5321647,6.48341449 C38.6506496,6.48341449 42,9.7410986 42,13.7417072 C42,14.0548539 41.9769917,14.3743914 41.9309751,14.6971242 L29.3569416,14.6971242 L29.5820942,15.3473828 C30.2953514,17.4243761 32.2872124,18.819157 34.5321647,18.819157 C35.7680388,18.819157 36.9578964,18.3957699 37.8979496,17.6208917 L39.5101737,19.1498783 C38.1428236,20.3433506 36.3810455,21 34.5321647,21 Z M34.5321647,8.66265977 C32.2872124,8.66265977 30.2953514,10.0574407 29.5820942,12.1360316 L29.3569416,12.7862903 L39.7090311,12.7862903 L39.4838785,12.1360316 C38.7706214,10.0574407 36.7804038,8.66265977 34.5321647,8.66265977 Z" id="Fill-53"></path>
            </g>
        </g>
    </g>
</svg>